…
    ## $forest
    ## # A tibble: 475 x 4
    ##    entity    code   year net_forest_conversion
    ##    <chr>     <chr> <dbl>                 <dbl>
    ##  1 Algeria   DZA    1990                -8800 
    ##  2 Algeria   DZA    2000                33900 
    ##  3 Algeria   DZA    2010                 7600 
    ##  4 Algeria   DZA    2015                -1400.
    ##  5 Argentina ARG    1990              -182600 
    ##  6 Argentina ARG    2000              -316400 
    ##  7 Argentina ARG    2010              -223400 
    ##  8 Argentina ARG    2015              -104800 
    ##  9 Aruba     ABW    1990                    0 
    ## 10 Aruba     ABW    2000                    0 
    ## # ... with 465 more rows
    ## 
    ## $forest_area
    ## # A tibble: 7,846 x 4
    ##    entity      code   year forest_area
    ##    <chr>       <chr> <dbl>       <dbl>
    ##  1 Afghanistan AFG    1990      0.0285
    ##  2 Afghanistan AFG    1991      0.0286
    ##  3 Afghanistan AFG    1992      0.0286
    ##  4 Afghanistan AFG    1993      0.0287
    ##  5 Afghanistan AFG    1994      0.0287
    ##  6 Afghanistan AFG    1995      0.0288
    ##  7 Afghanistan AFG    1996      0.0288
    ##  8 Afghanistan AFG    1997      0.0289
    ##  9 Afghanistan AFG    1998      0.0290
    ## 10 Afghanistan AFG    1999      0.0290
    ## # ... with 7,836 more rows
    ## 
    ## $brazil_loss
…
    ##  5 Brazil BRA    2005           328000            17000            26000 2665000
    ##  6 Brazil BRA    2006           188000            17000            26000 1861000
    ##  7 Brazil BRA    2007            79000             9000            22000 1577000
    ##  8 Brazil BRA    2008            52000                0            17000 1345000
    ##  9 Brazil BRA    2009            57000             9000            31000  847000
    ## 10 Brazil BRA    2010           100000                0            44000  616000
    ## 11 Brazil BRA    2011            52000            17000            87000  738000
    ## 12 Brazil BRA    2012           118000            17000            52000  546000
    ## 13 Brazil BRA    2013            87000                0            13000  695000
    ## # ... with 7 more variables: selective_logging <dbl>, fire <dbl>, mining <dbl>,
    ## #   other_infrastructure <dbl>, roads <dbl>,
    ## #   tree_plantations_including_palm <dbl>, small_scale_clearing <dbl>
    ## 
    ## $soybean_use
    ## # A tibble: 9,897 x 6
    ##    entity code   year human_food animal_feed processed
    ##    <chr>  <chr> <dbl>      <dbl>       <dbl>     <dbl>
    ##  1 Africa <NA>   1961      33000        6000     14000
    ##  2 Africa <NA>   1962      43000        7000     17000
    ##  3 Africa <NA>   1963      31000        7000      5000
    ##  4 Africa <NA>   1964      43000        6000     14000
    ##  5 Africa <NA>   1965      34000        6000     12000
    ##  6 Africa <NA>   1966      41000        6000      2000
    ##  7 Africa <NA>   1967      47000        6000      4000
    ##  8 Africa <NA>   1968      50000        7000      3000
    ##  9 Africa <NA>   1969      52000        6000      6000
    ## 10 Africa <NA>   1970      52000        6000      8000
    ## # ... with 9,887 more rows
    ## 
    ## $vegetable_oil
    ## # A tibble: 143,832 x 5
    ##    entity      code   year crop_oil        production
    ##    <chr>       <chr> <dbl> <chr>                <dbl>
    ##  1 Afghanistan AFG    1961 Soybean                 NA
    ##  2 Afghanistan AFG    1961 Sesame                2253
    ##  3 Afghanistan AFG    1961 Linseed               3531
    ##  4 Afghanistan AFG    1961 Palm                    NA
    ##  5 Afghanistan AFG    1961 Rapeseed                NA
    ##  6 Afghanistan AFG    1961 Groundnut               NA
    ##  7 Afghanistan AFG    1961 Cottonseed            4997
    ##  8 Afghanistan AFG    1961 Coconut (copra)         NA
    ##  9 Afghanistan AFG    1961 Olive, virgin           82
    ## 10 Afghanistan AFG    1961 Safflower               NA
    ## # ... with 143,822 more rows
…
data.map<-left_join(world.map, change, by= "region")

change
```

    ## # A tibble: 217 x 4
    ##    region          fa_1991  fa_2015   fa_change
    ##    <chr>             <dbl>    <dbl>       <dbl>
    ##  1 Afghanistan    0.0288   0.0298    0.000981  
    ##  2 Albania        0.0186   0.0194    0.000875  
    ##  3 Algeria        0.0387   0.0480    0.00935   
    ##  4 American Samoa 0.000426 0.000422 -0.00000444
    ##  5 Andorra        0.000381 0.000394  0.0000130 
    ##  6 Angola         1.87     1.64     -0.229     
    ##  7 Anguilla       0.000131 0.000136  0.00000447
    ##  8 Antigua        0.000233 0.000200 -0.0000330 
    ##  9 Argentina      0.817    0.704    -0.113     
    ## 10 Armenia        0.00795  0.00809   0.000142  
    ## # ... with 207 more rows
…
